%YAML 1.1
%TAG !u! tag:unity3d.com,2011:
--- !u!1045 &1
EditorBuildSettings:
  m_ObjectHideFlags: 0
  serializedVersion: 2
  m_Scenes:
  - enabled: 1
    path: Assets/Assets_Manuel/MenuScenes/MainMenu.unity
    guid: 4a6bb18e7db600640be3116ae6428134
  - enabled: 1
    path: Assets/Scenes/Lv1Austin_Greybox.unity
    guid: d5f386e68b6afb64ea92408c7146fb34
  - enabled: 1
    path: Assets/Scenes/Lvl2Spencer.unity
    guid: 9c952bf3ff91e5d4cbbda0954c3d7942
  - enabled: 1
    path: Assets/Scenes/Lvl3Manuel.unity
    guid: 88d0625f688b0d64998ec2fdab72d9da
  - enabled: 1
    path: Assets/Scenes/Lvl4Andres 1.unity
    guid: 3fdb089ce6ebcbe4ab22f37395bd4314
  - enabled: 1
    path: Assets/Scenes/Lvl5Bailey.unity
    guid: 7da7cf17aab70154eb94c3329751a564
  - enabled: 1
    path: Assets/Assets_Austin/Credits&Loading/Credits.unity
    guid: 7c49a2599f5c9ed49a4a2a5adbd1d632
  m_configObjects: {}
