%YAML 1.1
%TAG !u! tag:unity3d.com,2011:
--- !u!1 &179630531411968817
GameObject:
  m_ObjectHideFlags: 0
  m_CorrespondingSourceObject: {fileID: 0}
  m_PrefabInstance: {fileID: 0}
  m_PrefabAsset: {fileID: 0}
  serializedVersion: 6
  m_Component:
  - component: {fileID: 1938026024956524616}
  m_Layer: 0
  m_Name: Arc_emp
  m_TagString: Untagged
  m_Icon: {fileID: 0}
  m_NavMeshLayer: 0
  m_StaticEditorFlags: 0
  m_IsActive: 1
--- !u!4 &1938026024956524616
Transform:
  m_ObjectHideFlags: 0
  m_CorrespondingSourceObject: {fileID: 0}
  m_PrefabInstance: {fileID: 0}
  m_PrefabAsset: {fileID: 0}
  m_GameObject: {fileID: 179630531411968817}
  m_LocalRotation: {x: -0.70193225, y: -0.08538838, z: -0.085388355, w: 0.70193225}
  m_LocalPosition: {x: 777.8, y: 8.9221, z: 1719.1}
  m_LocalScale: {x: 201.02527, y: 201.02525, z: 201.02525}
  m_Children:
  - {fileID: 7240144197111709580}
  m_Father: {fileID: 0}
  m_RootOrder: 0
  m_LocalEulerAnglesHint: {x: 0, y: 0, z: 0}
--- !u!64 &4439417416398528407
MeshCollider:
  m_ObjectHideFlags: 0
  m_CorrespondingSourceObject: {fileID: 0}
  m_PrefabInstance: {fileID: 0}
  m_PrefabAsset: {fileID: 0}
  m_GameObject: {fileID: 5918135704795483551}
  m_Material: {fileID: 0}
  m_IsTrigger: 0
  m_Enabled: 1
  serializedVersion: 3
  m_Convex: 0
  m_CookingOptions: 14
  m_Mesh: {fileID: 8099948193385170223, guid: f28aec51c6686ce42baae71311e7affe, type: 3}
--- !u!1001 &2378072157380629654
PrefabInstance:
  m_ObjectHideFlags: 0
  serializedVersion: 2
  m_Modification:
    m_TransformParent: {fileID: 1938026024956524616}
    m_Modifications:
    - target: {fileID: -927199367670048503, guid: f28aec51c6686ce42baae71311e7affe,
        type: 3}
      propertyPath: m_Name
      value: ArcRock_Low
      objectReference: {fileID: 0}
    - target: {fileID: -4216859302048453862, guid: f28aec51c6686ce42baae71311e7affe,
        type: 3}
      propertyPath: m_LocalPosition.x
      value: 0
      objectReference: {fileID: 0}
    - target: {fileID: -4216859302048453862, guid: f28aec51c6686ce42baae71311e7affe,
        type: 3}
      propertyPath: m_LocalPosition.y
      value: 0
      objectReference: {fileID: 0}
    - target: {fileID: -4216859302048453862, guid: f28aec51c6686ce42baae71311e7affe,
        type: 3}
      propertyPath: m_LocalPosition.z
      value: 0
      objectReference: {fileID: 0}
    - target: {fileID: -4216859302048453862, guid: f28aec51c6686ce42baae71311e7affe,
        type: 3}
      propertyPath: m_LocalRotation.x
      value: -0
      objectReference: {fileID: 0}
    - target: {fileID: -4216859302048453862, guid: f28aec51c6686ce42baae71311e7affe,
        type: 3}
      propertyPath: m_LocalRotation.y
      value: -0
      objectReference: {fileID: 0}
    - target: {fileID: -4216859302048453862, guid: f28aec51c6686ce42baae71311e7affe,
        type: 3}
      propertyPath: m_LocalRotation.z
      value: -0
      objectReference: {fileID: 0}
    - target: {fileID: -4216859302048453862, guid: f28aec51c6686ce42baae71311e7affe,
        type: 3}
      propertyPath: m_LocalRotation.w
      value: 1
      objectReference: {fileID: 0}
    - target: {fileID: -4216859302048453862, guid: f28aec51c6686ce42baae71311e7affe,
        type: 3}
      propertyPath: m_RootOrder
      value: 0
      objectReference: {fileID: 0}
    - target: {fileID: -4216859302048453862, guid: f28aec51c6686ce42baae71311e7affe,
        type: 3}
      propertyPath: m_LocalEulerAnglesHint.x
      value: -89.98
      objectReference: {fileID: 0}
    - target: {fileID: -4216859302048453862, guid: f28aec51c6686ce42baae71311e7affe,
        type: 3}
      propertyPath: m_LocalEulerAnglesHint.y
      value: 0
      objectReference: {fileID: 0}
    - target: {fileID: -4216859302048453862, guid: f28aec51c6686ce42baae71311e7affe,
        type: 3}
      propertyPath: m_LocalEulerAnglesHint.z
      value: -13.872001
      objectReference: {fileID: 0}
    - target: {fileID: -4216859302048453862, guid: f28aec51c6686ce42baae71311e7affe,
        type: 3}
      propertyPath: m_LocalScale.x
      value: 1
      objectReference: {fileID: 0}
    - target: {fileID: -4216859302048453862, guid: f28aec51c6686ce42baae71311e7affe,
        type: 3}
      propertyPath: m_LocalScale.y
      value: 1
      objectReference: {fileID: 0}
    - target: {fileID: -4216859302048453862, guid: f28aec51c6686ce42baae71311e7affe,
        type: 3}
      propertyPath: m_LocalScale.z
      value: 1
      objectReference: {fileID: 0}
    - target: {fileID: -1504981713932161579, guid: f28aec51c6686ce42baae71311e7affe,
        type: 3}
      propertyPath: m_Materials.Array.data[0]
      value: 
      objectReference: {fileID: 2100000, guid: 72d943787bfb97644b964b1acab3ac00, type: 2}
    m_RemovedComponents: []
  m_SourcePrefab: {fileID: 100100000, guid: f28aec51c6686ce42baae71311e7affe, type: 3}
--- !u!1 &5918135704795483551 stripped
GameObject:
  m_CorrespondingSourceObject: {fileID: -927199367670048503, guid: f28aec51c6686ce42baae71311e7affe,
    type: 3}
  m_PrefabInstance: {fileID: 2378072157380629654}
  m_PrefabAsset: {fileID: 0}
--- !u!4 &7240144197111709580 stripped
Transform:
  m_CorrespondingSourceObject: {fileID: -4216859302048453862, guid: f28aec51c6686ce42baae71311e7affe,
    type: 3}
  m_PrefabInstance: {fileID: 2378072157380629654}
  m_PrefabAsset: {fileID: 0}
